{
    "prepare_queue": {
        "installed": [],
        "uninstalled": []
    },
    "config_munge": {
        "files": {}
    },
    "installed_plugins": {
        "cordova-plugin-whitelist": {
            "PACKAGE_NAME": "ch.wettermap.bl"
        },
        "cordova-plugin-geolocation": {
            "PACKAGE_NAME": "ch.wettermap.bl"
        }
    },
    "dependent_plugins": {
        "cordova-plugin-compat": {
            "PACKAGE_NAME": "ch.wettermap.bl"
        }
    }
}